sim/transcript
# do run.do
# Model Technology ModelSim SE-64 vlog 10.6 Compiler 2016.12 Dec 13 2016
# Start time: 07:23:12 on Apr 06,2020
# vlog ../dut/ALU_netlist.v ../lib/gscl45nm.v 
# -- Compiling module add_unsigned_6
# -- Compiling module add_unsigned_carry_1
# -- Compiling module add_unsigned_carry_28
# -- Compiling module add_unsigned_carry
# -- Compiling module gt_signed
# -- Compiling module geq_signed
# -- Compiling module increment_unsigned
# -- Compiling module lt_signed
# -- Compiling module leq_signed
# -- Compiling module shift_left_vlog_unsigned
# -- Compiling module shift_left_vlog_unsigned_1
# -- Compiling module shift_right_vlog_unsigned
# -- Compiling module shift_right_vlog_unsigned_623
# -- Compiling module shift_right_vlog_unsigned_784
# -- Compiling module shift_right_vlog_unsigned_784_1
# -- Compiling module ALU
# -- Compiling module AND2X1
# -- Compiling module AND2X2
# -- Compiling module AOI21X1
# -- Compiling module AOI22X1
# -- Compiling module BUFX2
# -- Compiling module BUFX4
# -- Compiling module CLKBUF1
# -- Compiling module CLKBUF2
# -- Compiling module CLKBUF3
# -- Compiling module DFFNEGX1
# -- Compiling module DFFPOSX1
# -- Compiling module DFFSR
# -- Compiling module FAX1
# -- Compiling module HAX1
# -- Compiling module INVX1
# -- Compiling module INVX2
# -- Compiling module INVX4
# -- Compiling module INVX8
# -- Compiling module LATCH
# -- Compiling module MUX2X1
# -- Compiling module NAND2X1
# -- Compiling module NAND3X1
# -- Compiling module NOR2X1
# -- Compiling module NOR3X1
# -- Compiling module OAI21X1
# -- Compiling module OAI22X1
# -- Compiling module OR2X1
# -- Compiling module OR2X2
# -- Compiling module TBUFX1
# -- Compiling module TBUFX2
# -- Compiling module XNOR2X1
# -- Compiling module XOR2X1
# -- Compiling UDP udp_dff
# -- Compiling UDP udp_tlat
# -- Compiling UDP udp_rslat
# -- Compiling UDP udp_mux2
# 
# Top level modules:
# 	ALU
# 	AND2X2
# 	BUFX4
# 	CLKBUF1
# 	CLKBUF2
# 	CLKBUF3
# 	DFFNEGX1
# 	DFFSR
# 	INVX2
# 	INVX4
# 	INVX8
# 	LATCH
# 	OAI22X1
# 	TBUFX1
# 	TBUFX2
# End time: 07:23:12 on Apr 06,2020, Elapsed time: 0:00:00
# Errors: 0, Warnings: 0
# Model Technology ModelSim SE-64 vlog 10.6 Compiler 2016.12 Dec 13 2016
# Start time: 07:23:12 on Apr 06,2020
# vlog "+fcover" -sv ../tb/interfaces.sv ../tb/sequences.sv ../tb/coverage.sv ../tb/scoreboard.sv ../tb/modules.sv ../tb/tests.sv ../tb/tb.sv 
# -- Compiling interface dut_in
# -- Compiling interface dut_out
# ** Note: (vlog-2286) ../tb/sequences.sv(1): Using implicit +incdir+/misc/linuxws/packages/mentor_2016/modelsim10.6/modeltech/uvm-1.1d/../verilog_src/uvm-1.1d/src from import uvm_pkg
# -- Compiling package sequences
# -- Importing package mtiUvm.uvm_pkg (uvm-1.1d Built-in)
# -- Compiling package coverage
# -- Importing package sequences
# -- Compiling package scoreboard
# -- Compiling package modules_pkg
# -- Importing package coverage
# -- Importing package scoreboard
# -- Compiling package tests
# -- Importing package modules_pkg
# -- Compiling package tb_sv_unit
# -- Importing package mtiUvm.uvm_pkg (uvm-1.1d Built-in)
# -- Importing package modules_pkg
# -- Importing package sequences
# -- Importing package coverage
# -- Importing package scoreboard
# -- Importing package tests
# -- Compiling module dut
# -- Compiling module top
# 
# Top level modules:
# 	top
# End time: 07:23:14 on Apr 06,2020, Elapsed time: 0:00:02
# Errors: 0, Warnings: 0
# vsim -c top 
# Start time: 07:23:14 on Apr 06,2020
# ** Note: (vsim-3812) Design is being optimized...
# //  ModelSim SE-64 10.6 Dec 13 2016Linux 2.6.32-754.25.1.el6.x86_64
# //
# //  Copyright 1991-2016 Mentor Graphics Corporation
# //  All Rights Reserved.
# //
# //  ModelSim SE-64 and its associated documentation contain trade
# //  secrets and commercial or financial information that are the property of
# //  Mentor Graphics Corporation and are privileged, confidential,
# //  and exempt from disclosure under the Freedom of Information Act,
# //  5 U.S.C. Section 552. Furthermore, this information
# //  is prohibited from disclosure under the Trade Secrets Act,
# //  18 U.S.C. Section 1905.
# //
# Loading sv_std.std
# Loading work.dut_in(fast)
# Loading work.dut_out(fast)
# Loading mtiUvm.uvm_pkg
# Loading work.sequences(fast)
# Loading work.scoreboard(fast)
# Loading work.coverage(fast)
# Loading work.modules_pkg(fast)
# Loading work.tests(fast)
# Loading work.tb_sv_unit(fast)
# Loading work.top(fast)
# Loading work.ALU(fast)
# Loading work.INVX1(fast)
# Loading work.HAX1(fast)
# Loading work.AOI21X1(fast)
# Loading work.AND2X1(fast)
# Loading work.BUFX2(fast)
# Loading work.FAX1(fast)
# Loading work.XOR2X1(fast)
# Loading work.OAI21X1(fast)
# Loading work.AOI22X1(fast)
# Loading work.NAND2X1(fast)
# Loading work.NOR2X1(fast)
# Loading work.OR2X1(fast)
# Loading work.NAND3X1(fast)
# Loading work.MUX2X1(fast)
# Loading work.NOR3X1(fast)
# Loading work.XNOR2X1(fast)
# Loading work.DFFPOSX1(fast)
# Loading work.OR2X2(fast)
# Loading mtiUvm.questa_uvm_pkg(fast)
# Loading /misc/linuxws/packages/mentor_2016/modelsim10.6/modeltech/uvm-1.1d/linux_x86_64/uvm_dpi.so
# ----------------------------------------------------------------
# UVM-1.1d
# (C) 2007-2013 Mentor Graphics Corporation
# (C) 2007-2013 Cadence Design Systems, Inc.
# (C) 2006-2013 Synopsys, Inc.
# (C) 2011-2013 Cypress Semiconductor Corp.
# ----------------------------------------------------------------
# 
#   ***********       IMPORTANT RELEASE NOTES         ************
# 
#   You are using a version of the UVM library that has been compiled
#   with `UVM_NO_DEPRECATED undefined.
#   See http://www.eda.org/svdb/view.php?id=3313 for more details.
# 
#   You are using a version of the UVM library that has been compiled
#   with `UVM_OBJECT_MUST_HAVE_CONSTRUCTOR undefined.
#   See http://www.eda.org/svdb/view.php?id=3770 for more details.
# 
#       (Specify +UVM_NO_RELNOTES to turn off this notice)
# 
# UVM_INFO verilog_src/questa_uvm_pkg-1.2/src/questa_uvm_pkg.sv(215) @ 0: reporter [Questa UVM] QUESTA_UVM-1.2.3
# UVM_INFO verilog_src/questa_uvm_pkg-1.2/src/questa_uvm_pkg.sv(217) @ 0: reporter [Questa UVM]  questa_uvm::init(+struct)
# UVM_INFO @ 0: reporter [RNTST] Running test test1...
# UVM_INFO ../tb/scoreboard.sv(63) @ 25000: uvm_test_top.alu_env_h.alu_scoreboard_h [TX_IN] Operand A = 0xc6709df6, Operand B = 0xe69a4f14, Opcode = 01011, CIN = 0, RST = 0
# UVM_INFO ../tb/scoreboard.sv(64) @ 25000: uvm_test_top.alu_env_h.alu_scoreboard_h [TX_OUT] OUT = 00000000000000000000000000000000, COUT = 0, VOUT = 0
# UVM_INFO ../tb/scoreboard.sv(178) @ 25000: uvm_test_top.alu_env_h.alu_scoreboard_h [PASS INFO]  Passed...realOUT = 00000000000000000000000000000000, realCOUT = 0, realVOUT = 0
# 
# 
# UVM_INFO ../tb/scoreboard.sv(63) @ 35000: uvm_test_top.alu_env_h.alu_scoreboard_h [TX_IN] Operand A = 0xaf8bccd1, Operand B = 0x26ad3330, Opcode = 10111, CIN = 1, RST = 0
# UVM_INFO ../tb/scoreboard.sv(64) @ 35000: uvm_test_top.alu_env_h.alu_scoreboard_h [TX_OUT] OUT = 10101111100010111100110011010010, COUT = 1, VOUT = 0
# UVM_INFO ../tb/scoreboard.sv(181) @ 35000: uvm_test_top.alu_env_h.alu_scoreboard_h [FAIL INFO]  Failed...realOUT = 10101111100010111100110011010010, realCOUT = 0, realVOUT = 0
# 
# 
# UVM_INFO ../tb/scoreboard.sv(63) @ 45000: uvm_test_top.alu_env_h.alu_scoreboard_h [TX_IN] Operand A = 0x348c8d41, Operand B = 0xb4eae857, Opcode = 10111, CIN = 1, RST = 0
# UVM_INFO ../tb/scoreboard.sv(64) @ 45000: uvm_test_top.alu_env_h.alu_scoreboard_h [TX_OUT] OUT = 00110100100011001000110101000010, COUT = 1, VOUT = 0
# UVM_INFO ../tb/scoreboard.sv(181) @ 45000: uvm_test_top.alu_env_h.alu_scoreboard_h [FAIL INFO]  Failed...realOUT = 00110100100011001000110101000010, realCOUT = 0, realVOUT = 0
# 
# 
# UVM_INFO ../tb/scoreboard.sv(63) @ 55000: uvm_test_top.alu_env_h.alu_scoreboard_h [TX_IN] Operand A = 0x8ba1f123, Operand B = 0x0facc41a, Opcode = 10001, CIN = 0, RST = 0
# UVM_INFO ../tb/scoreboard.sv(64) @ 55000: uvm_test_top.alu_env_h.alu_scoreboard_h [TX_OUT] OUT = 10011011010011101011010100111101, COUT = 0, VOUT = 0
# UVM_INFO ../tb/scoreboard.sv(178) @ 55000: uvm_test_top.alu_env_h.alu_scoreboard_h [PASS INFO]  Passed...realOUT = 10011011010011101011010100111101, realCOUT = 0, realVOUT = 0
# 
# 
# UVM_INFO ../tb/scoreboard.sv(63) @ 65000: uvm_test_top.alu_env_h.alu_scoreboard_h [TX_IN] Operand A = 0xc34c28c7, Operand B = 0x0a0b5943, Opcode = 00111, CIN = 0, RST = 0
# UVM_INFO ../tb/scoreboard.sv(64) @ 65000: uvm_test_top.alu_env_h.alu_scoreboard_h [TX_OUT] OUT = 11001011010011110111100111000111, COUT = 0, VOUT = 0
# UVM_INFO ../tb/scoreboard.sv(178) @ 65000: uvm_test_top.alu_env_h.alu_scoreboard_h [PASS INFO]  Passed...realOUT = 11001011010011110111100111000111, realCOUT = 0, realVOUT = 0
# 
# 
# UVM_INFO ../tb/scoreboard.sv(63) @ 75000: uvm_test_top.alu_env_h.alu_scoreboard_h [TX_IN] Operand A = 0x63ca4119, Operand B = 0x2dc17949, Opcode = 01100, CIN = 0, RST = 0
# UVM_INFO ../tb/scoreboard.sv(64) @ 75000: uvm_test_top.alu_env_h.alu_scoreboard_h [TX_OUT] OUT = 00000000000000000000000000000000, COUT = 0, VOUT = 0
# UVM_INFO ../tb/scoreboard.sv(178) @ 75000: uvm_test_top.alu_env_h.alu_scoreboard_h [PASS INFO]  Passed...realOUT = 00000000000000000000000000000000, realCOUT = 0, realVOUT = 0
# 
# 
# UVM_INFO ../tb/scoreboard.sv(63) @ 85000: uvm_test_top.alu_env_h.alu_scoreboard_h [TX_IN] Operand A = 0x87aacbab, Operand B = 0x2eae3575, Opcode = 11000, CIN = 1, RST = 0
# UVM_INFO ../tb/scoreboard.sv(64) @ 85000: uvm_test_top.alu_env_h.alu_scoreboard_h [TX_OUT] OUT = 01110101011100001111010101011001, COUT = 0, VOUT = 0
# UVM_INFO ../tb/scoreboard.sv(178) @ 85000: uvm_test_top.alu_env_h.alu_scoreboard_h [PASS INFO]  Passed...realOUT = 01110101011100001111010101011001, realCOUT = 0, realVOUT = 0
# 
# 
# UVM_INFO ../tb/scoreboard.sv(63) @ 95000: uvm_test_top.alu_env_h.alu_scoreboard_h [TX_IN] Operand A = 0xbf81d44a, Operand B = 0xd37c6fb4, Opcode = 11101, CIN = 1, RST = 0
# UVM_INFO ../tb/scoreboard.sv(64) @ 95000: uvm_test_top.alu_env_h.alu_scoreboard_h [TX_OUT] OUT = 11111111111111111111101111111000, COUT = 1, VOUT = 1
# UVM_INFO ../tb/scoreboard.sv(181) @ 95000: uvm_test_top.alu_env_h.alu_scoreboard_h [FAIL INFO]  Failed...realOUT = 00000000000000000000101111111000, realCOUT = 0, realVOUT = 1
# 
# 
# UVM_INFO ../tb/scoreboard.sv(63) @ 105000: uvm_test_top.alu_env_h.alu_scoreboard_h [TX_IN] Operand A = 0x081d3fbd, Operand B = 0xd544cfb8, Opcode = 11100, CIN = 1, RST = 0
# UVM_INFO ../tb/scoreboard.sv(64) @ 105000: uvm_test_top.alu_env_h.alu_scoreboard_h [TX_OUT] OUT = 10111101000000000000000000000000, COUT = 0, VOUT = 1
# UVM_INFO ../tb/scoreboard.sv(178) @ 105000: uvm_test_top.alu_env_h.alu_scoreboard_h [PASS INFO]  Passed...realOUT = 10111101000000000000000000000000, realCOUT = 0, realVOUT = 1
# 
# 
# UVM_INFO ../tb/scoreboard.sv(63) @ 115000: uvm_test_top.alu_env_h.alu_scoreboard_h [TX_IN] Operand A = 0x53a13a17, Operand B = 0x40fb695f, Opcode = 01000, CIN = 0, RST = 0
# UVM_INFO ../tb/scoreboard.sv(64) @ 115000: uvm_test_top.alu_env_h.alu_scoreboard_h [TX_OUT] OUT = 00000000000000000000000000000000, COUT = 0, VOUT = 0
# UVM_INFO ../tb/scoreboard.sv(178) @ 115000: uvm_test_top.alu_env_h.alu_scoreboard_h [PASS INFO]  Passed...realOUT = 00000000000000000000000000000000, realCOUT = 0, realVOUT = 0
# 
# 
# UVM_INFO ../tb/scoreboard.sv(63) @ 125000: uvm_test_top.alu_env_h.alu_scoreboard_h [TX_IN] Operand A = 0x6e7a3cc1, Operand B = 0xc933dddf, Opcode = 10001, CIN = 1, RST = 0
# UVM_INFO ../tb/scoreboard.sv(64) @ 125000: uvm_test_top.alu_env_h.alu_scoreboard_h [TX_OUT] OUT = 00110111101011100001101010100000, COUT = 1, VOUT = 1
# UVM_INFO ../tb/scoreboard.sv(181) @ 125000: uvm_test_top.alu_env_h.alu_scoreboard_h [FAIL INFO]  Failed...realOUT = 00110111101011100001101010100001, realCOUT = 1, realVOUT = 1
# 
# 
# UVM_INFO ../tb/scoreboard.sv(63) @ 135000: uvm_test_top.alu_env_h.alu_scoreboard_h [TX_IN] Operand A = 0x547eaf8a, Operand B = 0xa77d7403, Opcode = 01101, CIN = 0, RST = 0
# UVM_INFO ../tb/scoreboard.sv(64) @ 135000: uvm_test_top.alu_env_h.alu_scoreboard_h [TX_OUT] OUT = 00000000000000000000000000000000, COUT = 0, VOUT = 0
# UVM_INFO ../tb/scoreboard.sv(178) @ 135000: uvm_test_top.alu_env_h.alu_scoreboard_h [PASS INFO]  Passed...realOUT = 00000000000000000000000000000000, realCOUT = 0, realVOUT = 0
# 
# 
# UVM_INFO ../tb/scoreboard.sv(63) @ 145000: uvm_test_top.alu_env_h.alu_scoreboard_h [TX_IN] Operand A = 0x34d15f43, Operand B = 0xb858e0a9, Opcode = 11000, CIN = 1, RST = 0
# UVM_INFO ../tb/scoreboard.sv(64) @ 145000: uvm_test_top.alu_env_h.alu_# make[1]: Entering directory `/home/ecelrc/students/tjemilehin/lab3/sim'
# vsim -c -do run.do
# Reading pref.tcl
# 
# 10.6
# 
# do run.do
# Model Technology ModelSim SE-64 vlog 10.6 Compiler 2016.12 Dec 13 2016
# Start time: 07:23:12 on Apr 06,2020
# vlog ../dut/ALU_netlist.v ../lib/gscl45nm.v 
# -- Compiling module add_unsigned_6
# -- Compiling module add_unsigned_carry_1
# -- Compiling module add_unsigned_carry_28
# -- Compiling module add_unsigned_carry
# -- Compiling module gt_signed
# -- Compiling module geq_signed
# -- Compiling module increment_unsigned
# -- Compiling module lt_signed
# -- Compiling module leq_signed
# -- Compiling module shift_left_vlog_unsigned
# -- Compiling module shift_left_vlog_unsigned_1
# -- Compiling module shift_right_vlog_unsigned
# -- Compiling module shift_right_vlog_unsigned_623
# -- Compiling module shift_right_vlog_unsigned_784
# -- Compiling module shift_right_vlog_unsigned_784_1
# -- Compiling module ALU
# -- Compiling module AND2X1
# -- Compiling module AND2X2
# -- Compiling module AOI21X1
# -- Compiling module AOI22X1
# -- Compiling module BUFX2
# -- Compiling module BUFX4
# -- Compiling module CLKBUF1
# -- Compiling module CLKBUF2
# -- Compiling module CLKBUF3
# -- Compiling module DFFNEGX1
# -- Compiling module DFFPOSX1
# -- Compiling module DFFSR
# -- Compiling module FAX1
# -- Compiling module HAX1
# -- Compiling module INVX1
# -- Compiling module INVX2
# -- Compiling module INVX4
# -- Compiling module INVX8
# -- Compiling module LATCH
# -- Compiling module MUX2X1
# -- Compiling module NAND2X1
# -- Compiling module NAND3X1
# -- Compiling module NOR2X1
# -- Compiling module NOR3X1
# -- Compiling module OAI21X1
# -- Compiling module OAI22X1
# -- Compiling module OR2X1
# -- Compiling module OR2X2
# -- Compiling module TBUFX1
# -- Compiling module TBUFX2
# -- Compiling module XNOR2X1
# -- Compiling module XOR2X1
# -- Compiling UDP udp_dff
# -- Compiling UDP udp_tlat
# -- Compiling UDP udp_rslat
# -- Compiling UDP udp_mux2
# 
# Top level modules:
# 	ALU
# 	AND2X2
# 	BUFX4
# 	CLKBUF1
# 	CLKBUF2
# 	CLKBUF3
# 	DFFNEGX1
# 	DFFSR
# 	INVX2
# 	INVX4
# 	INVX8
# 	LATCH
# 	OAI22X1
# 	TBUFX1
# 	TBUFX2
# End time: 07:23:12 on Apr 06,2020, Elapsed time: 0:00:00
# Errors: 0, Warnings: 0
# Model Technology ModelSim SE-64 vlog 10.6 Compiler 2016.12 Dec 13 2016
# Start time: 07:23:12 on Apr 06,2020
# vlog "+fcover" -sv ../tb/interfaces.sv ../tb/sequences.sv ../tb/coverage.sv ../tb/scoreboard.sv ../tb/modules.sv ../tb/tests.sv ../tb/tb.sv 
# -- Compiling interface dut_in
# -- Compiling interface dut_out
# ** Note: (vlog-2286) ../tb/sequences.sv(1): Using implicit +incdir+/misc/linuxws/packages/mentor_2016/modelsim10.6/modeltech/uvm-1.1d/../verilog_src/uvm-1.1d/src from import uvm_pkg
# -- Compiling package sequences
# -- Importing package mtiUvm.uvm_pkg (uvm-1.1d Built-in)
# -- Compiling package coverage
# -- Importing package sequences
# -- Compiling package scoreboard
# -- Compiling package modules_pkg
# -- Importing package coverage
# -- Importing package scoreboard
# -- Compiling package tests
# -- Importing package modules_pkg
# -- Compiling package tb_sv_unit
# -- Importing package mtiUvm.uvm_pkg (uvm-1.1d Built-in)
# -- Importing package modules_pkg
# -- Importing package sequences
# -- Importing package coverage
# -- Importing package scoreboard
# -- Importing package tests
# -- Compiling module dut
# -- Compiling module top
# 
# Top level modules:
# 	top
# End time: 07:23:14 on Apr 06,2020, Elapsed time: 0:00:02
# Errors: 0, Warnings: 0
# vsim -c top 
# Start time: 07:23:14 on Apr 06,2020
# ** Note: (vsim-3812) Design is being optimized...
# //  ModelSim SE-64 10.6 Dec 13 2016Linux 2.6.32-754.25.1.el6.x86_64
# //
# //  Copyright 1991-2016 Mentor Graphics Corporation
# //  All Rights Reserved.
# //
# //  ModelSim SE-64 and its associated documentation contain trade
# //  secrets and commercial or financial information that are the property of
# //  Mentor Graphics Corporation and are privileged, confidential,
# //  and exempt from disclosure under the Freedom of Information Act,
# //  5 U.S.C. Section 552. Furthermore, this information
# //  is prohibited from disclosure under the Trade Secrets Act,
# //  18 U.S.C. Section 1905.
# //
# Loading sv_std.std
# Loading work.dut_in(fast)
# Loading work.dut_out(fast)
# Loading mtiUvm.uvm_pkg
# Loading work.sequences(fast)
# Loading work.scoreboard(fast)
# Loading work.coverage(fast)
# Loading work.modules_pkg(fast)
# Loading work.tests(fast)
# Loading work.tb_sv_unit(fast)
# Loading work.top(fast)
# Loading work.ALU(fast)
# Loading work.INVX1(fast)
# Loading work.HAX1(fast)
# Loading work.AOI21X1(fast)
# Loading work.AND2X1(fast)
# Loading work.BUFX2(fast)
# Loading work.FAX1(fast)
# Loading work.XOR2X1(fast)
# Loading work.OAI21X1(fast)
# Loading work.AOI22X1(fast)
# Loading work.NAND2X1(fast)
# Loading work.NOR2X1(fast)
# Loading work.OR2X1(fast)
# Loading work.NAND3X1(fast)
# Loading work.MUX2X1(fast)
# Loading work.NOR3X1(fast)
# Loading work.XNOR2X1(fast)
# Loading work.DFFPOSX1(fast)
# Loading work.OR2X2(fast)
# Loading mtiUvm.questa_uvm_pkg(fast)
# Loading /misc/linuxws/packages/mentor_2016/modelsim10.6/modeltech/uvm-1.1d/linux_x86_64/uvm_dpi.so
# ----------------------------------------------------------------
# UVM-1.1d
# (C) 2007-2013 Mentor Graphics Corporation
# (C) 2007-2013 Cadence Design Systems, Inc.
# (C) 2006-2013 Synopsys, Inc.
# (C) 2011-2013 Cypress Semiconductor Corp.
# ----------------------------------------------------------------
# 
#   ***********       IMPORTANT RELEASE NOTES         ************
# 
#   You are using a version of the UVM library that has been compiled
#   with `UVM_NO_DEPRECATED undefined.
#   See http://www.eda.org/svdb/view.php?id=3313 for more details.
# 
#   You are using a version of the UVM library that has been compiled
#   with `UVM_OBJECT_MUST_HAVE_CONSTRUCTOR undefined.
#   See http://www.eda.org/svdb/view.php?id=3770 for more details.
# 
#       (Specify +UVM_NO_RELNOTES to turn off this notice)
# 
# UVM_INFO verilog_src/questa_uvm_pkg-1.2/src/questa_uvm_pkg.sv(215) @ 0: reporter [Questa UVM] QUESTA_UVM-1.2.3
# UVM_INFO verilog_src/questa_uvm_pkg-1.2/src/questa_uvm_pkg.sv(217) @ 0: reporter [Questa UVM]  questa_uvm::init(+struct)
# UVM_INFO @ 0: reporter [RNTST] Running test test1...
# UVM_INFO ../tb/scoreboard.sv(63) @ 25000: uvm_test_top.alu_env_h.alu_scoreboard_h [TX_IN] Operand A = 0xc6709df6, Operand B = 0xe69a4f14, Opcode = 01011, CIN = 0, RST = 0
# UVM_INFO ../tb/scoreboard.sv(64) @ 25000: uvm_test_top.alu_env_h.alu_scoreboard_h [TX_OUT] OUT = 00000000000000000000000000000000, COUT = 0, VOUT = 0
# UVM_INFO ../tb/scoreboard.sv(178) @ 25000: uvm_test_top.alu_env_h.alu_scoreboard_h [PASS INFO]  Passed...realOUT = 00000000000000000000000000000000, realCOUT = 0, realVOUT = 0
# 
# 
# UVM_INFO ../tb/scoreboard.sv(63) @ 35000: uvm_test_top.alu_env_h.alu_scoreboard_h [TX_IN] Operand A = 0xaf8bccd1, Operand B = 0x26ad3330, Opcode = 10111, CIN = 1, RST = 0
# UVM_INFO ../tb/scoreboard.sv(64) @ 35000: uvm_test_top.alu_env_h.alu_scoreboard_h [TX_OUT] OUT = 10101111100010111100110011010010, COUT = 1, VOUT = 0
# UVM_INFO ../tb/scoreboard.sv(181) @ 35000: uvm_test_top.alu_env_h.alu_scoreboard_h [FAIL INFO]  Failed...realOUT = 10101111100010111100110011010010, realCOUT = 0, realVOUT = 0
# 
# 
# UVM_INFO ../tb/scoreboard.sv(63) @ 45000: uvm_test_top.alu_env_h.alu_scoreboard_h [TX_IN] Operand A = 0x348c8d41, Operand B = 0xb4eae857, Opcode = 10111, CIN = 1, RST = 0
# UVM_INFO ../tb/scoreboard.sv(64) @ 45000: uvm_test_top.alu_env_h.alu_scoreboard_h [TX_OUT] OUT = 00110100100011001000110101000010, COUT = 1, VOUT = 0
# UVM_INFO ../tb/scoreboard.sv(181) @ 45000: uvm_test_top.alu_env_h.alu_scoreboard_h [FAIL INFO]  Failed...realOUT = 00110100100011001000110101000010, realCOUT = 0, realVOUT = 0
# 
# 
# UVM_INFO ../tb/scoreboard.sv(63) @ 55000: uvm_test_top.alu_env_h.alu_scoreboard_h [TX_IN] Operand A = 0x8ba1f123, Operand B = 0x0facc41a, Opcode = 10001, CIN = 0, RST = 0
# UVM_INFO ../tb/scoreboard.sv(64) @ 55000: uvm_test_top.alu_env_h.alu_scoreboard_h [TX_OUT] OUT = 10011011010011101011010100111101, COUT = 0, VOUT = 0
# UVM_INFO ../tb/scoreboard.sv(178) @ 55000: uvm_test_top.alu_env_h.alu_scoreboard_h [PASS INFO]  Passed...realOUT = 10011011010011101011010100111101, realCOUT = 0, realVOUT = 0
# 
# 
# UVM_INFO ../tb/scoreboard.sv(63) @ 65000: uvm_test_top.alu_env_h.alu_scoreboard_h [TX_IN] Operand A = 0xc34c28c7, Operand B = 0x0a0b5943, Opcode = 00111, CIN = 0, RST = 0
# UVM_INFO ../tb/scoreboard.sv(64) @ 65000: uvm_test_top.alu_env_h.alu_scoreboard_h [TX_OUT] OUT = 11001011010011110111100111000111, COUT = 0, VOUT = 0
# UVM_INFO ../tb/scoreboard.sv(178) @ 65000: uvm_test_top.alu_env_h.alu_scoreboard_h [PASS INFO]  Passed...realOUT = 11001011010011110111100111000111, realCOUT = 0, realVOUT = 0
# 
# 
# UVM_INFO ../tb/scoreboard.sv(63) @ 75000: uvm_test_top.alu_env_h.alu_scoreboard_h [TX_IN] Operand A = 0x63ca4119, Operand B = 0x2dc17949, Opcode = 01100, CIN = 0, RST = 0
# UVM_INFO ../tb/scoreboard.sv(64) @ 75000: uvm_test_top.alu_env_h.alu_scoreboard_h [TX_OUT] OUT = 00000000000000000000000000000000, COUT = 0, VOUT = 0
# UVM_INFO ../tb/scoreboard.sv(178) @ 75000: uvm_test_top.alu_env_h.alu_scoreboard_h [PASS INFO]  Passed...realOUT = 00000000000000000000000000000000, realCOUT = 0, realVOUT = 0
# 
# 
# UVM_INFO ../tb/scoreboard.sv(63) @ 85000: uvm_test_top.alu_env_h.alu_scoreboard_h [TX_IN] Operand A = 0x87aacbab, Operand B = 0x2eae3575, Opcode = 11000, CIN = 1, RST = 0
# UVM_INFO ../tb/scoreboard.sv(64) @ 85000: uvm_test_top.alu_env_h.alu_scoreboard_h [TX_OUT] OUT = 01110101011100001111010101011001, COUT = 0, VOUT = 0
# UVM_INFO ../tb/scoreboard.sv(178) @ 85000: uvm_test_top.alu_env_h.alu_scoreboard_h [PASS INFO]  Passed...realOUT = 01110101011100001111010101011001, realCOUT = 0, realVOUT = 0
# 
# 
# UVM_INFO ../tb/scoreboard.sv(63) @ 95000: uvm_test_top.alu_env_h.alu_scoreboard_h [TX_IN] Operand A = 0xbf81d44a, Operand B = 0xd37c6fb4, Opcode = 11101, CIN = 1, RST = 0
# UVM_INFO ../tb/scoreboard.sv(64) @ 95000: uvm_test_top.alu_env_h.alu_scoreboard_h [TX_OUT] OUT = 11111111111111111111101111111000, COUT = 1, VOUT = 1
# UVM_INFO ../tb/scoreboard.sv(181) @ 95000: uvm_test_top.alu_env_h.alu_scoreboard_h [FAIL INFO]  Failed...realOUT = 00000000000000000000101111111000, realCOUT = 0, realVOUT = 1
# 
# 
# UVM_INFO ../tb/scoreboard.sv(63) @ 105000: uvm_test_top.alu_env_h.alu_scoreboard_h [TX_IN] Operand A = 0x081d3fbd, Operand B = 0xd544cfb8, Opcode = 11100, CIN = 1, RST = 0
# UVM_INFO ../tb/scoreboard.sv(64) @ 105000: uvm_test_top.alu_env_h.alu_scoreboard_h [TX_OUT] OUT = 10111101000000000000000000000000, COUT = 0, VOUT = 1
# UVM_INFO ../tb/scoreboard.sv(178) @ 105000: uvm_test_top.alu_env_h.alu_scoreboard_h [PASS INFO]  Passed...realOUT = 10111101000000000000000000000000, realCOUT = 0, realVOUT = 1
# 
# 
# UVM_INFO ../tb/scoreboard.sv(63) @ 115000: uvm_test_top.alu_env_h.alu_scoreboard_h [TX_IN] Operand A = 0x53a13a17, Operand B = 0x40fb695f, Opcode = 01000, CIN = 0, RST = 0
# UVM_INFO ../tb/scoreboard.sv(64) @ 115000: uvm_test_top.alu_env_h.alu_scoreboard_h [TX_OUT] OUT = 00000000000000000000000000000000, COUT = 0, VOUT = 0
# UVM_INFO ../tb/scoreboard.sv(178) @ 115000: uvm_test_top.alu_env_h.alu_scoreboard_h [PASS INFO]  Passed...realOUT = 00000000000000000000000000000000, realCOUT = 0, realVOUT = 0
# 
# 
# UVM_INFO ../tb/scoreboard.sv(63) @ 125000: uvm_test_top.alu_env_h.alu_scoreboard_h [TX_IN] Operand A = 0x6e7a3cc1, Operand B = 0xc933dddf, Opcode = 10001, CIN = 1, RST = 0
# UVM_INFO ../tb/scoreboard.sv(64) @ 125000: uvm_test_top.alu_env_h.alu_scoreboard_h [TX_OUT] OUT = 00110111101011100001101010100000, COUT = 1, VOUT = 1
# UVM_INFO ../tb/scoreboard.sv(181) @ 125000: uvm_test_top.alu_env_h.alu_scoreboard_h [FAIL INFO]  Failed...realOUT = 00110111101011100001101010100001, realCOUT = 1, realVOUT = 1
# 
# 
# UVM_INFO ../tb/scoreboard.sv(63) @ 135000: uvm_test_top.alu_env_h.alu_scoreboard_h [TX_IN] Operand A = 0x547eaf8a, Operand B = 0xa77d7403, Opcode = 01101, CIN = 0, RST = 0
# UVM_INFO ../tb/scoreboard.sv(64) @ 135000: uvm_test_top.alu_env_h.alu_scoreboard_h [TX_OUT] OUT = 00000000000000000000000000000000, COUT = 0, VOUT = 0
# UVM_INFO ../tb/scoreboard.sv(178) @ 135000: uvm_test_top.alu_env_h.alu_scoreboard_h [PASS INFO]  Passed...realOUT = 00000000000000000000000000000000, realCOUT = 0, realVOUT = 0
# 
# 
# UVM_INFO ../tb/scoreboard.sv(63) @ 145000: uvm_test_top.alu_env_h.alu_scoreboard_h [TX_IN] Operand A = 0x34d15f43, Operand B = 0xb858e0a9, Opcode = 11000, CIN = 1, RST = 0
# UVM_INFO ../tb/scoreboard.sv(64) @ 145000: uvm_test_top.alu_env_h.alu_scoreboard_h [TX_OUT] OUT = 10100010101111101000011001101001, COUT = 0, VOUT = 0
# UVM_INFO ../tb/scoreboard.sv(178) @ 145000: uvm_test_top.alu_env_h.alu_scoreboard_h [PASS INFO]  Passed...realOUT = 10100010101111101000011001101001, realCOUT = 0, realVOUT = 0
# 
# 
# UVM_INFO ../tb/scoreboard.sv(63) @ 155000: uvm_test_top.alu_env_h.alu_scoreboard_h [TX_IN] Operand A = 0xb3f4658c, Operand B = 0x5ae8433e, Opcode = 00001, CIN = 1, RST = 0
# UVM_INFO ../tb/scoreboard.sv(64) @ 155000: uvm_test_top.alu_env_h.alu_scoreboard_h [TX_OUT] OUT = 00000000000000000000000000000000, COUT = 0, VOUT = 0
# UVM_INFO ../tb/scoreboard.sv(178) @ 155000: uvm_test_top.alu_env_h.alu_scoreboard_h [PASS INFO]  Passed...realOUT = 00000000000000000000000000000000, realCOUT = 0, realVOUT = 0
# 
# 
